id;fecha;tipo_pago;total
1;2022-01-25;Director Plástico Usabilidad;50732
2;2022-01-24;6th payment Savings;26694
3;2022-01-24;reboot;48
4;2022-01-24;Fácil backing Real;58507
5;2022-01-25;Argentina;67251
6;2022-01-24;Loan virtual División;86570
7;2022-01-25;GB reboot;65179
8;2022-01-25;Rioja;12908
9;2022-01-24;firewall discreta visualize;8614
10;2022-01-25;Investment withdrawal navigate;58938
